(18)ggplot2学习笔记 | SCY SPACE
…
 映射

1

mpg

#> # A tibble: 234 × 11
#>    manufacturer model      displ  year   cyl trans drv     cty   hwy fl    class
#>    <chr>        <chr>      <dbl> <int> <int> <chr> <chr> <int> <int> <chr> <chr>
#>  1 audi         a4           1.8  1999     4 auto… f        18    29 p     comp…
#>  2 audi         a4           1.8  1999     4 manu… f        21    29 p     comp…
#>  3 audi         a4           2    2008     4 manu… f        20    31 p     comp…
#>  4 audi         a4           2    2008     4 auto… f        21    30 p     comp…
#>  5 audi         a4           2.8  1999     6 auto… f        16    26 p     comp…
#>  6 audi         a4           2.8  1999     6 manu… f        18    26 p     comp…
#>  7 audi         a4           3.1  2008     6 auto… f        18    27 p     comp…
#>  8 audi         a4 quattro   1.8  1999     4 manu… 4        18    26 p     comp…
#>  9 audi         a4 quattro   1.8  1999     4 auto… 4        16    25 p     comp…
#> 10 audi         a4 quattro   2    2008     4 manu… 4        20    28 p     comp…
#> # ℹ 224 more rows
…
11
class
类型

 排量和油耗之间是什么关系？

提取子集：displ hwy class

1
2

mpg %>% 
  select(displ, hwy, class)

#> # A tibble: 234 × 3
#>    displ   hwy class  
#>    <dbl> <int> <chr>  
#>  1   1.8    29 compact
#>  2   1.8    29 compact
#>  3   2      31 compact
#>  4   2      30 compact
#>  5   2.8    26 compact
#>  6   2.8    26 compact
#>  7   3.1    27 compact
#>  8   1.8    26 compact
#>  9   1.8    25 compact
#> 10   2      28 compact
#> # ℹ 224 more rows
…
两个离散

两个连续

一个离散，一个连续

三个连续

1
2

read_csv("data/gapminder.csv") -> gapdata
gapdata

#> # A tibble: 1,704 × 6
#>    country     continent  year lifeExp      pop gdpPercap
#>    <chr>       <chr>     <dbl>   <dbl>    <dbl>     <dbl>
#>  1 Afghanistan Asia       1952    28.8  8425333      779.
#>  2 Afghanistan Asia       1957    30.3  9240934      821.
#>  3 Afghanistan Asia       1962    32.0 10267083      853.
#>  4 Afghanistan Asia       1967    34.0 11537966      836.
#>  5 Afghanistan Asia       1972    36.1 13079460      740.
#>  6 Afghanistan Asia       1977    38.4 14880372      786.
#>  7 Afghanistan Asia       1982    39.9 12881816      978.
#>  8 Afghanistan Asia       1987    40.8 13867957      852.
#>  9 Afghanistan Asia       1992    41.7 16317921      649.
#> 10 Afghanistan Asia       1997    41.8 22227415      635.
#> # ℹ 1,694 more rows
…
整理数据

1
2
3

mpg %>% 
  filter(class != "2seater", manufacturer %in% c("toyota", "volkswagen")) -> df
df

#> # A tibble: 61 × 11
#>    manufacturer model      displ  year   cyl trans drv     cty   hwy fl    class
#>    <chr>        <chr>      <dbl> <int> <int> <chr> <chr> <int> <int> <chr> <chr>
#>  1 toyota       4runner 4…   2.7  1999     4 manu… 4        15    20 r     suv  
#>  2 toyota       4runner 4…   2.7  1999     4 auto… 4        16    20 r     suv  
#>  3 toyota       4runner 4…   3.4  1999     6 auto… 4        15    19 r     suv  
#>  4 toyota       4runner 4…   3.4  1999     6 manu… 4        15    17 r     suv  
#>  5 toyota       4runner 4…   4    2008     6 auto… 4        16    20 r     suv  
#>  6 toyota       4runner 4…   4.7  2008     8 auto… 4        14    17 r     suv  
#>  7 toyota       camry        2.2  1999     4 manu… f        21    29 r     mids…
#>  8 toyota       camry        2.2  1999     4 auto… f        21    27 r     mids…
#>  9 toyota       camry        2.4  2008     4 manu… f        21    31 r     mids…
#> 10 toyota       camry        2.4  2008     4 auto… f        21    31 r     mids…
#> # ℹ 51 more rows
…
1
2
3
4
5
6

newgapdata <- gapdata %>% 
  group_by(continent, country) %>% 
  summarise(
    across(c(lifeExp, gdpPercap, pop), mean)
  )
newgapdata

#> # A tibble: 142 × 5
#> # Groups:   continent [5]
#>    continent country                  lifeExp gdpPercap       pop
#>    <chr>     <chr>                      <dbl>     <dbl>     <dbl>
#>  1 Africa    Algeria                     59.0     4426. 19875406.
#>  2 Africa    Angola                      37.9     3607.  7309390.
#>  3 Africa    Benin                       48.8     1155.  4017497.
#>  4 Africa    Botswana                    54.6     5032.   971186.
#>  5 Africa    Burkina Faso                44.7      844.  7548677.
#>  6 Africa    Burundi                     44.8      472.  4651608.
#>  7 Africa    Cameroon                    48.1     1775.  9816648.
#>  8 Africa    Central African Republic    43.9      959.  2560963 
#>  9 Africa    Chad                        46.8     1165.  5329256.
#> 10 Africa    Comoros                     52.4     1314.   361684.
#> # ℹ 132 more rows
…
那什么时候用标度，什么时候用主题？这里有个原则：主题风格不会增加标签，也不会改变变量的范围，主题只会改变字体、大小、颜色等等。

 教程（一）

加载包

加载数据

1
2

haven::read_dta("data/auto.dta") -> auto
auto

#> # A tibble: 74 × 12
#>    make        price   mpg rep78 headroom trunk weight length  turn displacement
#>    <chr>       <dbl> <dbl> <dbl>    <dbl> <dbl>  <dbl>  <dbl> <dbl>        <dbl>
#>  1 AMC Concord  4099    22     3      2.5    11   2930    186    40          121
#>  2 AMC Pacer    4749    17     3      3      11   3350    173    40          258
#>  3 AMC Spirit   3799    22    NA      3      12   2640    168    35          121
#>  4 Buick Cent…  4816    20     3      4.5    16   3250    196    40          196
#>  5 Buick Elec…  7827    15     4      4      20   4080    222    43          350
#>  6 Buick LeSa…  5788    18     3      4      21   3670    218    43          231
#>  7 Buick Opel   4453    26    NA      3      10   2230    170    34          304
#>  8 Buick Regal  5189    20     3      2      16   3280    200    42          196
#>  9 Buick Rivi… 10372    16     3      3.5    17   3880    207    43          231
#> 10 Buick Skyl…  4082    19     3      3.5    13   3400    200    42          231
#> # ℹ 64 more rows
#> # ℹ 2 more variables: gear_ratio <dbl>, foreign <dbl+lbl>
…
read_sf("data/world_high_resolution_mill.geo.json") -> wdmp
haven::read_dta("data/world-covid19.dta") -> df

wdmp %>% 
  left_join(df, by = c("code" = "iso")) %>% 
  subset(date == "2020-06-10") -> mydata
mydata

#> Simple feature collection with 180 features and 9 fields
#> Geometry type: MULTIPOLYGON
#> Dimension:     XY
#> Bounding box:  xmin: -20015110 ymin: -6947577 xmax: 20015110 ymax: 12641180
#> Projected CRS: World_Miller_Cylindrical
#> # A tibble: 180 × 10
#>    name    name_en code                   geometry country country_en date      
#>    <chr>   <chr>   <chr>        <MULTIPOLYGON [m]> <chr>   <chr>      <date>    
#>  1 阿尔及… ALGERIA DZA   (((-245324.1 4068138, -2… 阿尔及… Algeria    2020-06-10
#>  2 列支敦… Liecht… LIE   (((1067880 5656162, 1059… 列支敦… Liechtens… 2020-06-10
#>  3 埃及    EGYPT   EGY   (((3961141 2619833, 3915… 埃及    Egypt      2020-06-10
#>  4 孟加拉… BANGLA… BGD   (((10297641 2482880, 102… 孟加拉… Bangladesh 2020-06-10
#>  5 尼日尔  Niger   NER   (((400866.4 1306467, 394… 尼日尔  Niger      2020-06-10
#>  6 卡塔尔  QATAR   QAT   (((5699872 2791895, 5682… 卡塔尔  Qatar      2020-06-10
#>  7 纳米比… NAMIBIA NAM   (((2223927 -2808902, 222… 纳米比… Namibia    2020-06-10
#>  8 保加利… Bulgar… BGR   (((2486312 5005203, 2497… 保加利… Bulgaria   2020-06-10
#>  9 玻利维… Bolivia BOL   (((-6966045 -2514366, -6… 玻利维… Bolivia    2020-06-10
#> 10 加纳    Ghana   GHA   (((-299106.5 1058207, -3… 加纳    Ghana      2020-06-10
#> # ℹ 170 more rows
#> # ℹ 3 more variables: confirmed <dbl>, recovered <dbl>, deaths <dbl>
…
