(19)地图可视化 | SCY SPACE
…
library(sf)
library(readxl)
library(tidyverse)

read_sf("data/世界地图矢量数据(带九段线、南极).geojson") -> wdmp
wdmp

#> Simple feature collection with 254 features and 1 field
#> Geometry type: MULTIPOLYGON
#> Dimension:     XY
#> Bounding box:  xmin: -180 ymin: -89.9989 xmax: 180 ymax: 83.61018
#> Geodetic CRS:  WGS 84
#> # A tibble: 254 × 2
#>    code                                                                 geometry
#>    <chr>                                                      <MULTIPOLYGON [°]>
#>  1 AIA   (((-63.00121 18.22178, -63.16002 18.1714, -63.15335 18.20028, -63.0260…
#>  2 ALA   (((19.98951 60.35115, 20.0202 60.35089, 20.03385 60.35931, 20.08738 60…
#>  3 ATA   (((-57.02065 -63.37282, -56.92737 -63.50553, -56.78185 -63.57167, -56.…
#>  4 Ashm  (((123.5945 -12.4257, 123.5952 -12.43593, 123.5731 -12.43418, 123.5725…
#>  5 BLM   (((-62.83192 17.87648, -62.84691 17.87519, -62.85895 17.88366, -62.869…
#>  6 BMU   (((-64.73026 32.29346, -64.82015 32.25963, -64.84505 32.26229, -64.862…
#>  7 COK   (((-159.7405 -21.24925, -159.7725 -21.2495, -159.8131 -21.24206, -159.…
#>  8 CUW   (((-68.7511 12.05978, -68.80331 12.04547, -68.99514 12.14184, -69.1538…
#>  9 CYN   (((34.00447 35.06525, 33.96571 35.05678, 33.90328 35.08546, 33.86644 3…
#> 10 Gaza  (((34.24528 31.20833, 34.21252 31.29228, 34.19815 31.32261, 34.38729 3…
#> # ℹ 244 more rows
…
read_sf("data/china_prov_full_map.json") |> 
  st_set_crs("+proj=lcc +lat_1=30 +lat_2=62 +lat_0=0 +lon_0=105 +x_0=0 +y_0=0 +ellps=krass +units=m +no_defs") -> prov

prov |> 
  left_join(provdf) |> 
  select(省, 地区生产总值_亿元, gdp) -> provdf

library(ggspatial)
haven::read_dta('data/china_prov_label.dta') |> 
  dplyr::filter(!name %in% c("1000km", "N")) -> provlabel
provlabel

#> # A tibble: 35 × 4
#>       id         X        Y name  
#>    <dbl>     <dbl>    <dbl> <chr> 
#>  1     1  1623938. 5866667. 黑龙江
#>  2     2 -1609429. 5113455. 新疆  
#>  3     3   621816. 4559114. 山西  
#>  4     4    99683. 4501151. 宁夏  
#>  5     5 -1532343. 4038557. 西藏  
#>  6     6  1142137. 4495014. 山东  
#>  7     7   780159. 4174676. 河南  
#>  8     8  1325927. 4156136. 江苏  
#>  9     9  1142714. 3994883. 安徽  
#> 10    10   688818. 3846593. 湖北  
#> # ℹ 25 more rows
…
read_csv('data/data-bKvwd.csv') |> 
  st_as_sf(coords = c("Lon", "Lat"), crs = 4326) |> 
  select(`2000-2016`, City, category, geometry) |> 
  mutate(`2000-2016` =  as.numeric(`2000-2016`)) -> df

df

#> Simple feature collection with 503 features and 3 fields
#> Geometry type: POINT
#> Dimension:     XY
#> Bounding box:  xmin: -123.12 ymin: -37.81 xmax: 174.77 ymax: 60.17
#> Geodetic CRS:  WGS 84
#> # A tibble: 503 × 4
#>    `2000-2016` City           category                 geometry
#>  *       <dbl> <chr>          <chr>                 <POINT [°]>
#>  1         1.3 Melbourne      between 0 and 2.5 (144.96 -37.81)
#>  2         1.5 Auckland       between 0 and 2.5 (174.77 -36.87)
#>  3         0.6 Adelaide       between 0 and 2.5  (138.6 -34.93)
#>  4         0.4 Montevideo     between 0 and 2.5 (-56.17 -34.83)
#>  5         1.3 Buenos Aires   between 0 and 2.5  (-58.4 -34.61)
#>  6         1.9 Cape Town      between 0 and 2.5  (18.42 -33.93)
#>  7         1.3 Port Elizabeth between 0 and 2.5  (25.57 -33.92)
#>  8         0.7 Sydney         between 0 and 2.5 (151.21 -33.87)
#>  9         0.9 Santiago       between 0 and 2.5 (-70.65 -33.46)
#> 10         1.2 Rosario        between 0 and 2.5 (-60.64 -32.95)
#> # ℹ 493 more rows
…
