(01) 欢迎（空间数据科学——R语言应用） | SCY SPACE
…
## Simple feature collection with 100 features and 3 fields
## Geometry type: MULTIPOLYGON
## Dimension:     XY
## Bounding box:  xmin: -84.32385 ymin: 33.88199 xmax: -75.45698 ymax: 36.58965
## Geodetic CRS:  NAD27
## # A tibble: 100 × 4
##    AREA BIR74 SID74                                                                              geom
##   <dbl> <dbl> <dbl>                                                                <MULTIPOLYGON [°]>
## 1 0.114  1091     1 (((-81.47276 36.23436, -81.54084 36.27251, -81.56198 36.27359, -81.63306 36.3406…
## 2 0.061   487     0 (((-81.23989 36.36536, -81.24069 36.37942, -81.26284 36.40504, -81.26624 36.4372…
## 3 0.143  3188     5 (((-80.45634 36.24256, -80.47639 36.25473, -80.53688 36.25674, -80.54501 36.2766…
## # ℹ 97 more rows
…
